%YAML 1.1
%TAG !u! tag:unity3d.com,2011:
--- !u!114 &11400000
MonoBehaviour:
  m_ObjectHideFlags: 0
  m_CorrespondingSourceObject: {fileID: 0}
  m_PrefabInstance: {fileID: 0}
  m_PrefabAsset: {fileID: 0}
  m_GameObject: {fileID: 0}
  m_Enabled: 1
  m_EditorHideFlags: 0
  m_Script: {fileID: 11500000, guid: 4de7419972505d24c9d2e825915caa48, type: 3}
  m_Name: StartGameData
  m_EditorClassIdentifier: 
  numberOfPlayersAtStart: 3
  currentPlayers: 3
  nameOfPlayers: []
  tankPrefab: {fileID: 173472, guid: 543629f6a4669e1438d7e2100561e667, type: 3}
  colours:
  - {r: 1, g: 0, b: 0, a: 0}
  - {r: 0.96055627, g: 1, b: 0, a: 0}
  - {r: 0, g: 1, b: 0.016851187, a: 0}
  - {r: 0, g: 0.2004807, b: 1, a: 0}
